('/home/arnaud/tuxblocs/build/tuxblocs/tuxblocs',
 True,
 False,
 True,
 None,
 None,
 False,
 False,
 None,
 True,
 True,
 False,
 None,
 None,
 None,
 '/home/arnaud/tuxblocs/build/tuxblocs/tuxblocs.pkg',
 [('PYZ-00.pyz', '/home/arnaud/tuxblocs/build/tuxblocs/PYZ-00.pyz', 'PYZ'),
  ('struct',
   '/home/arnaud/tuxblocs/build/tuxblocs/localpycs/struct.pyc',
   'PYMODULE'),
  ('pyimod01_archive',
   '/home/arnaud/tuxblocs/build/tuxblocs/localpycs/pyimod01_archive.pyc',
   'PYMODULE'),
  ('pyimod02_importers',
   '/home/arnaud/tuxblocs/build/tuxblocs/localpycs/pyimod02_importers.pyc',
   'PYMODULE'),
  ('pyimod03_ctypes',
   '/home/arnaud/tuxblocs/build/tuxblocs/localpycs/pyimod03_ctypes.pyc',
   'PYMODULE'),
  ('pyiboot01_bootstrap',
   '/home/arnaud/.local/lib/python3.8/site-packages/PyInstaller/loader/pyiboot01_bootstrap.py',
   'PYSOURCE'),
  ('pyi_rth__tkinter',
   '/home/arnaud/.local/lib/python3.8/site-packages/PyInstaller/hooks/rthooks/pyi_rth__tkinter.py',
   'PYSOURCE'),
  ('pyi_rth_pkgutil',
   '/home/arnaud/.local/lib/python3.8/site-packages/PyInstaller/hooks/rthooks/pyi_rth_pkgutil.py',
   'PYSOURCE'),
  ('pyi_rth_multiprocessing',
   '/home/arnaud/.local/lib/python3.8/site-packages/PyInstaller/hooks/rthooks/pyi_rth_multiprocessing.py',
   'PYSOURCE'),
  ('pyi_rth_inspect',
   '/home/arnaud/.local/lib/python3.8/site-packages/PyInstaller/hooks/rthooks/pyi_rth_inspect.py',
   'PYSOURCE'),
  ('tuxblocs', '/home/arnaud/tuxblocs/tuxblocs.py', 'PYSOURCE')],
 [],
 False,
 False,
 1684152975,
 [('run',
   '/home/arnaud/.local/lib/python3.8/site-packages/PyInstaller/bootloader/Linux-64bit-intel/run',
   'EXECUTABLE')])
